INDEX VERSION 1.127+/Users/Miller/talleres-templates-3/.metadata/.plugins/org.eclipse.jdt.core
965335243.index
1594631690.index
1271342938.index
3712507179.index
1819685514.index
4059364602.index
3302703152.index
3199462873.index
489563832.index
795267717.index
1116271856.index
1833648217.index
1747654382.index
3244864425.index
1482809875.index
2584745134.index
3575267300.index
3975215079.index
2147531794.index
3369272816.index
1384487945.index
346711152.index
4082578982.index
2777386132.index
156905802.index
2043853475.index
2791775041.index
3580773995.index
2969716518.index
25811868.index
441072939.index
786462423.index
694951076.index
3321539481.index
123979294.index
3785765040.index
671815324.index
2066645062.index
2058001853.index
1201907931.index
3316544250.index
3145990890.index
1165542491.index
4103544854.index
2545238116.index
2135854116.index
174260290.index
865354567.index
3266567714.index
